[
    {
        "database": "postgres",
        "index": "client",
        "nodes": {
            "table": "client",
            "schema": "public",
            "columns": [
                "id",
                "name",
                "age",
                "phone",
                "address",
                "birthday",
                "email",
                "family"
            ],
            "transform": {
                "mapping": {
                    "name": {
                        "type": "keyword"
                    },
                    "family": {
                        "type": "nested",
                        "properties": {
                            "name": {
                                "type": "keyword"
                            },
                            "phone": {
                                "type": "keyword"
                            },
                            "family_ties": {
                                "type": "keyword"
                            },
                            "age": {
                                "type": "long"
                            }
                        }
                    }
                }
            },
            "children": [
                {
                    "table": "info_calls",
                    "schema": "public",
                    "columns": [
                        "id",
                        "count_of_calls",
                        "avg_call_duration",
                        "date_call",
                        "client_category",
                        "digitized_text",
                        "coordinates"
                    ],
                    "transform": {
                        "mapping": {
                            "avg_call_duration": {
                                "type": "long"
                            },
                            "digitized_text": {
                                "type": "text"
                            },
                            "coordinates": {
                                "type": "keyword"
                            }
                    }
                },
                    "relationship": {
                        "variant": "object",
                        "type": "one_to_many",
                        "foreign_key": {
                            "child": [
                                "who_calls_id"
                            ],
                            "parent": [
                                "id"
                            ]
                        }
                    },
                    "children": [
                        {
                            "table": "client",
                            "schema": "public",
                            "columns": [
                                "id",
                                "name",
                                "age",
                                "phone",
                                "address",
                                "birthday",
                                "email",
                                "family"
                            ],
                            "transform": {
                                "mapping": {
                                    "name": {
                                        "type": "keyword"
                                    },
                                    "family": {
                                        "type": "nested",
                                        "properties": {
                                            "name": {
                                                "type": "keyword"
                                            },
                                            "phone": {
                                                "type": "keyword"
                                            },
                                            "family_ties": {
                                                "type": "keyword"
                                            },
                                            "age": {
                                                "type": "long"
                                            }
                                        }
                                    }
                                }
                            },
                            "label": "whom_calls",
                            "relationship": {
                                "variant": "object",
                                "type": "one_to_one",
                                "foreign_key": {
                                    "child": [
                                        "id"
                                    ],
                                    "parent": [
                                        "whom_calls_id"
                                    ]
                                }
                            }
                        }
                    ]
                }
            ]
        }
    },
    {
        "database": "postgres",
        "index": "info_calls",
        "setting": {
            "analysis": {
                "filter": {
                    "my_ngram_filter": {
                        "type": "ngram"
                    }
                },
                "analyzer": {
                    "my_ngram_analyzer": {
                        "type": "custom",
                        "tokenizer": "standard",
                        "filter": ["lowercase", "my_ngram_filter"]
                    }
                }
            }
        },
        "nodes": {
            "table": "info_calls",
            "schema": "public",
            "columns": [
                "id",
                "count_of_calls",
                "avg_call_duration",
                "date_call",
                "client_category",
                "digitized_text",
                "coordinates"
            ],
            "transform": {
                "mapping": {
                    "avg_call_duration": {
                        "type": "long"
                    },
                    "coordinates": {
                        "type": "keyword"
                    },
                    "digitized_text": {
                        "type": "text",
                        "analyzer": "my_ngram_analyzer"
                    }

            }
        },
            "children": [
                {
                    "table": "client",
                    "schema": "public",
                    "columns": [
                        "id",
                        "name",
                        "age",
                        "phone",
                        "address",
                        "birthday",
                        "email",
                        "family"
                    ],
                    "transform": {
                        "mapping": {
                            "name": {
                                "type": "keyword"
                            },
                            "family": {
                                "type": "nested",
                                "properties": {
                                    "name": {
                                        "type": "keyword"
                                    },
                                    "phone": {
                                        "type": "keyword"
                                    },
                                    "family_ties": {
                                        "type": "keyword"
                                    },
                                    "age": {
                                        "type": "long"
                                    }
                                }
                            }
                        }
                    },
                    "label": "who_calls",
                    "relationship": {
                        "variant": "object",
                        "type": "one_to_one",
                        "foreign_key": {
                            "child": [
                                "id"
                            ],
                            "parent": [
                                "who_calls_id"
                            ]
                        }
                    }
                },
                {
                    "table": "client",
                    "schema": "public",
                    "columns": [
                        "id",
                        "name",
                        "age",
                        "phone",
                        "address",
                        "birthday",
                        "email",
                        "family"
                    ],
                    "transform": {
                        "mapping": {
                            "name": {
                                "type": "keyword"
                            },
                            "family": {
                                "type": "nested",
                                "properties": {
                                    "name": {
                                        "type": "keyword"
                                    },
                                    "phone": {
                                        "type": "keyword"
                                    },
                                    "family_ties": {
                                        "type": "keyword"
                                    },
                                    "age": {
                                        "type": "long"
                                    }
                                }
                            }
                        }
                    },
                    "label": "whom_calls",
                    "relationship": {
                        "variant": "object",
                        "type": "one_to_one",
                        "foreign_key": {
                            "child": [
                                "id"
                            ],
                            "parent": [
                                "whom_calls_id"
                            ]
                        }
                    }
                }
            ]
        }
    }
]